1 10 20
100 200 125
201 210 89
900 1000 174
1 1 1
1 2 2
2 1 2
10 1 20
200 100 125
210 201 89
1000 900 174
1 5 8
5 1 8
5 5 6
4 10 20
10 4 20
1 1000 179
10 100 119
100 10 119
50 4 112
4 50 112
1 3 8
3 1 8
100 100 26
8 8 4
8 7 17
7 8 17
5 5 6
10 15 18
15 10 18
150 100 122
100 150 122
7 77 116
77 7 116
88 8 116
8 88 116
9 9 20
9 10 20
10 9 20
12 12 10
13 12 10
12 13 10
14 15 18
15 14 18
1 8 17
1 9 20
1 10 20
1 11 20
1 12 20
1 13 20
1 14 20
1 15 20
1 16 20
1 17 20
1 18 21
1 19 21
1 20 21
8 1 17
9 1 20
10 1 20
11 1 20
12 1 20
13 1 20
14 1 20
15 1 20
16 1 20
17 1 20
18 1 21
19 1 21
20 1 21
10 10 7
11 10 15
12 10 15
13 10 15
14 10 18
15 10 18
16 10 18
17 10 18
18 10 21
19 10 21
20 10 21
10 20 21
10 19 21
10 18 21
10 17 18
10 16 18
10 15 18
10 14 18
10 13 15
10 12 15
10 11 15
9 20 21
9 21 21
9 22 21
9 23 21
9 24 21
9 25 24
9 26 24
9 27 112
9 28 112
9 29 112
9 30 112
