1 10 20
100 200 125
201 210 89
900 1000 174
306248 195921 443
869995 34656 525
159859 721307 509
444164 737431 509
188413 392543 443
688651 853917 525
323157 906271 525
579205 574965 390
912413 504994 525
835314 227276 509
635964 784239 504
482047 322657 449
176428 455238 449
218902 92015 386
340719 471372 449
554360 779185 509
166798 988348 525
981439 622316 525
346726 350505 366
595596 235593 470
891289 392091 525
552178 993924 525
120632 293594 443
157382 424451 449
622309 848234 525
238394 876081 525
96224 647390 509
888584 119962 525
791029 603675 509
233031 956072 525
199610 75756 383
319099 753676 509
980802 644949 525
669855 611145 509
834075 456970 509
878394 486467 525
687083 536788 509
50223 476228 449
736762 173576 509
216503 851901 525
110019 33686 354
986418 61691 525
584298 481874 470
501224 21657 449
636974 432307 509
342806 299295 384
881719 553171 525
550568 146340 470
131456 962361 525
194638 390533 443
249415 868128 525
102509 812389 509
923297 373276 525
242172 269553 407
500434 138918 449
192250 286714 443
162531 385060 443
845605 284073 525
796795 945844 525
419742 791968 509
746876 763408 424
29895 261043 443
182880 631744 509
136318 281127 443
403817 728295 509
981036 304494 525
716750 27136 509
198984 553644 470
605112 683240 509
557447 490078 470
972694 409136 525
718848 968539 525
863825 837192 525
674685 330508 509
981876 320361 525
750211 252261 509
992038 972700 427
996913 457378 525
955337 209803 525
556490 788169 509
251754 857901 525
857498 21091 525
635166 27575 509
817147 506507 509
161608 681403 509
816228 352449 509
260969 70094 443
821503 127700 509
494547 825683 509
206176 656024 509
224839 471090 449
466529 566498 470
449111 360634 449
298394 302758 371
769752 855781 525
611414 21422 470
476136 582109 470
919368 680284 525
811829 275726 509
97313 583127 470
586241 62586 470
369958 505984 449
262238 359843 441
201206 337267 443
98174 953851 525
735631 683161 504
195555 7967 383
882702 284008 525
955903 547814 525
720998 268143 509
415821 650087 509
378211 884481 525
158518 361877 443
521048 302938 470
260552 794937 509
455563 795422 509
463885 30071 449
610403 284782 470
426953 33130 449
283304 255442 407
889963 119024 525
472190 986334 525
306870 804006 509
830492 567022 509
196208 725873 509
703982 277292 509
170939 238765 443
820790 974593 525
957255 272892 525
415725 476500 444
228962 834477 509
782332 669750 504
612778 738054 509
325854 838404 525
600813 831360 509
53796 659843 509
304779 818384 509
544329 219508 470
92681 968221 525
946213 377879 525
348726 124890 443
132316 68223 354
680931 448112 509
905299 913448 476
611654 8853 470
414142 265801 449
34455 203928 383
167485 463775 449
32429 406618 443
90543 2671 351
995747 590872 525
824996 635778 504
200667 524219 470
920332 201423 525
366843 979301 525
133805 792294 509
939514 979015 458
890447 555348 525
380395 363335 423
226613 381152 443
545209 578739 452
360218 933150 525
184233 165021 365
39075 942004 525
384842 425563 449
67296 214587 383
503305 690114 509
764444 199480 509
768693 179831 509
112570 164578 383
445666 84906 449
838430 966089 507
536054 817914 509
882364 98341 525
648327 453273 509
211819 31381 383
543354 676900 509
555427 27986 470
437206 863603 525
81032 487646 449
595020 831009 509
674518 72327 509
428092 449547 400
198758 173855 365
404891 150953 443
142228 147000 375
62666 844556 525
560325 849066 525
31211 927077 525
675449 991745 525
1 64326 340
13 600 144
543 101000 351
234101 234101 63
1 999999 525
999 1000 112
999 1001 143
3 3 8
4 87541 351
