1 10 20
100 200 125
201 210 89
900 1000 174
25 369 144
59 68 108
67 89 116
100 8000 262
2000 8000 262
963 578 179
832 9500 262
10000 100000 351
10 1 20
523 897 179
938 523 179
89 4756 238
6124 9458 262
23158 96547 351
921 635 179
7154 9326 260
7215 3164 262
845 621 171
1 999999 525
5 963 179
963 5 179
815 64 171
321 654 145
789 456 171
123 789 171
639 825 171
852 741 153
147 258 128
946 326 179
9468 9652 198
55555 66666 335
16100 170000 383
362000 875000 525
123756 945687 525
145 666 145
777 888 179
956 1023 156
8456 9763 260
1254 6325 262
741 852 153
963 10000 262
751 862 153
890 10056 262
12 3698 217
13 6398 262
12 5367 238
5 8963 262
1 23 21
2 3 8
1 2 2
2 2 2
3 1 8
6 9630 262
10 789 171
741 9568 262
7771 6 262
6984 124 262
445 663 145
22 31 112
30 369 144
12 336 144
26 587 144
30 21 112
21 25 24
21 63 113
9 55555 340
102314 800000 509
999998 999999 259
2 6 9
1 2 2
3 3 8
89 781423 509
412 365 134
844 576 171
21 369 144
2 333 144
1 557 144
4 588 144
2 698 145
332 457 134
2369 5478 238
12 456 144
7 896 179
236 51 128
11111 11118 162
29 98 119
14 76 116
59 63 108
845 77412 351
62 354 144
200 200000 383
632 954111 525
26 3 24
3 1 8
2 3 8
3 3 8
2 2 2
1 1 1
1000 1000 112
369 210 144
210 547 144
